Predictive Soil Spectroscopy - 3 Machine Learning
…
# Retrain
lrn_cubist_error <- lrn_cubist_tuned$train(task_error)

# Get the plain error predictions
error_predictions <- predict(lrn_cubist_error, newdata = as.data.table(task_error))

# Calculating the conformity scores (alpha) of the calibration set
error_matrix <- error_matrix %>%
    select(-starts_with("pc_")) %>%
    mutate(pred_error = error_predictions) %>%
    mutate(alpha_scores = error/pred_error)

error_matrix

# A tibble: 2,016 × 4
   id.sample_local_c   error pred_error alpha_scores
               <dbl>   <dbl>      <dbl>        <dbl>
 1            100540 0.204        0.119       1.71  
 2            101337 1.14         0.493       2.31  
 3            101343 0.306        0.301       1.02  
 4            101372 0.00705      0.107       0.0657
 5            102078 0.252        0.267       0.944 
 6            102085 0.119        0.191       0.625 
 7            102736 0.0272       0.198       0.138 
 8            102737 0.119        0.169       0.706 
 9            102744 0.168        0.136       1.24  
10            102745 0.00363      0.101       0.0358
# ℹ 2,006 more rows
…
